<?xml version="1.0" encoding="UTF-8" standalone="no"?>
<svg
   xmlns:dc="http://purl.org/dc/elements/1.1/"
   xmlns:cc="http://creativecommons.org/ns#"
   xmlns:rdf="http://www.w3.org/1999/02/22-rdf-syntax-ns#"
   xmlns:svg="http://www.w3.org/2000/svg"
   xmlns="http://www.w3.org/2000/svg"
   xmlns:sodipodi="http://sodipodi.sourceforge.net/DTD/sodipodi-0.dtd"
   xmlns:inkscape="http://www.inkscape.org/namespaces/inkscape"
   width="180"
   height="180"
   viewBox="0 0 47.624999 47.625001"
   version="1.1"
   id="svg936"
   inkscape:version="1.0.2 (e86c870879, 2021-01-15)"
   sodipodi:docname="surveillance.svg">
  <defs
     id="defs930" />
  <sodipodi:namedview
     id="base"
     pagecolor="#ffffff"
     bordercolor="#666666"
     borderopacity="1.0"
     inkscape:pageopacity="0.0"
     inkscape:pageshadow="2"
     inkscape:zoom="1.4"
     inkscape:cx="243.79128"
     inkscape:cy="244.73686"
     inkscape:document-units="mm"
     inkscape:current-layer="layer1"
     inkscape:document-rotation="0"
     showgrid="false"
     units="px"
     inkscape:window-width="1920"
     inkscape:window-height="1016"
     inkscape:window-x="0"
     inkscape:window-y="0"
     inkscape:window-maximized="1" />
  <metadata
     id="metadata933">
    <rdf:RDF>
      <cc:Work
         rdf:about="">
        <dc:format>image/svg+xml</dc:format>
        <dc:type
           rdf:resource="http://purl.org/dc/dcmitype/StillImage" />
        <dc:title></dc:title>
      </cc:Work>
    </rdf:RDF>
  </metadata>
  <g
     inkscape:label="Capa 1"
     inkscape:groupmode="layer"
     id="layer1">
    <g
       id="g1793"
       transform="matrix(0.26458333,0,0,0.26458333,68.418211,2.9999999e-7)">
      <path
         class="st0"
         d="m -168.58852,180 v 0 c -49.71,0 -90,-40.29 -90,-90 v 0 c 0,-49.71 40.29,-90 90,-90 v 0 c 49.71,0 90.000004,40.29 90.000004,90 v 0 c 0,49.71 -40.290004,90 -90.000004,90 z"
         id="path1380"
         style="fill:#ffffff" />
      <path
         class="st1"
         d="m -134.2816,133.93731 c -22.9546,-0.72698 -45.58883,0.12323 -68.59272,0 1.6757,-16.48592 7.26958,-27.88312 22.92996,-34.598243 -4.99013,-5.11332 -7.77475,-10.928994 -6.55493,-18.432664 1.94676,-11.988648 10.60864,-21.389807 23.43512,-20.712141 12.8388,0.67767 21.42675,10.337595 21.38979,23.139421 -0.0247,8.00885 -6.14834,13.738274 -12.62935,17.681087 13.2947,8.206 19.52928,17.39769 20.02213,32.92254 z"
         id="path1382"
         style="stroke-width:1.23213"
         sodipodi:nodetypes="cccccccc" />
      <g
         id="g1390"
         transform="rotate(10.109128,-71.949436,-1405.0084)">
        <path
           class="st1"
           d="m 153.38537,92.414249 c -2.55173,0 -5.08725,-0.508184 -7.44435,-1.502928 -1.49753,-0.632527 -2.52471,-1.973268 -2.74095,-3.589726 -0.21625,-1.616458 0.41627,-3.178853 1.69214,-4.189815 2.68148,-2.11383 5.90359,-3.476196 9.3095,-3.935724 l 0.0378,0.270311 -0.0378,-0.270311 c 3.40591,-0.459528 6.86589,0 10.01771,1.329928 1.49753,0.632527 2.52471,1.978675 2.74095,3.589726 0.21625,1.616458 -0.41627,3.178854 -1.69214,4.18441 -2.68148,2.11383 -5.90359,3.476195 -9.3095,3.935724 -0.85959,0.118936 -1.71918,0.178405 -2.57336,0.178405 z m 3.38429,-12.850571 c -0.83256,0 -1.66511,0.05406 -2.49767,0.167593 -3.3086,0.44331 -6.4388,1.767832 -9.04459,3.822193 -1.1245,0.886619 -1.68674,2.27061 -1.49212,3.692444 0.18922,1.421835 1.09746,2.605795 2.41658,3.162635 3.05991,1.292085 6.42258,1.740801 9.73118,1.297492 3.30861,-0.44331 6.4388,-1.767832 9.0446,-3.822193 1.12449,-0.88662 1.68674,-2.265204 1.49211,-3.692445 -0.18921,-1.421834 -1.09205,-2.605795 -2.41657,-3.162635 -2.28683,-0.967712 -4.75207,-1.465084 -7.23352,-1.465084 z"
           id="path1384"
           style="fill:#030f2b;fill-opacity:1;stroke-width:0.540621" />
        <path
           class="st1"
           d="m 149.78255,82.274865 c -1.90048,2.922052 -1.07019,6.831237 1.85187,8.731727 2.92204,1.900484 6.83123,1.070191 8.73172,-1.851855 1.90048,-2.922051 1.07019,-6.831237 -1.85186,-8.731727 -2.92558,-1.896385 -6.83124,-1.07019 -8.73173,1.851855 z m 3.28578,1.485985 c 1.26979,0.828516 1.63087,2.522656 0.80645,3.795969 -0.82851,1.26979 -2.52265,1.630873 -3.79597,0.806455 -1.26979,-0.828515 -1.63086,-2.522648 -0.80645,-3.795967 0.82851,-1.26979 2.53028,-1.631444 3.79597,-0.806457 z"
           id="path1386"
           style="fill:#030f2b;stroke-width:0.540621" />
        <path
           class="st1"
           d="m 159.37746,80.737702 c 1.08605,0.93432 1.83202,2.189364 2.13493,3.619522 0.36691,1.720541 0.0389,3.477936 -0.92018,4.949207 -1.97577,3.042707 -6.06269,3.905517 -9.1054,1.929754 -1.47127,-0.959057 -2.48657,-2.431551 -2.85347,-4.152087 -0.3669,-1.720536 -0.0389,-3.47793 0.92372,-4.9533 0.95906,-1.471271 2.43155,-2.486578 4.15208,-2.853482 1.71702,-0.362799 3.47794,-0.03886 4.94921,0.920199 0.25419,0.168746 0.4937,0.346273 0.71908,0.540217 z m -8.25308,9.551988 c 0.20491,0.176282 0.42451,0.343808 0.65408,0.491433 2.79319,1.818158 6.53989,1.019237 8.35805,-1.773955 0.87969,-1.354138 1.18048,-2.963813 0.84324,-4.544734 -0.33315,-1.577399 -1.26658,-2.929539 -2.6172,-3.813321 -1.35413,-0.879679 -2.9638,-1.180472 -4.54473,-0.843231 -1.5774,0.333148 -2.93363,1.263054 -3.81331,2.617192 v 0 c -0.35398,0.544121 -0.61658,1.131197 -0.77777,1.741335 0.95739,-1.187447 2.67954,-1.481648 3.98916,-0.633126 1.39455,0.907319 1.79167,2.77509 0.88436,4.16964 -0.90732,1.394551 -2.77509,1.791674 -4.16964,0.884356 -0.10074,-0.06528 -0.19795,-0.134643 -0.28402,-0.208667 0.35755,0.728353 0.8548,1.377208 1.47775,1.91312 z m -1.16207,-2.354687 c 0.082,0.07052 0.17158,0.140423 0.26411,0.198662 1.14446,0.742091 2.68022,0.41591 3.4223,-0.72855 0.74208,-1.144467 0.41237,-2.676117 -0.72445,-3.418774 -1.14447,-0.742091 -2.68021,-0.415904 -3.42231,0.728551 -0.68037,1.047794 -0.46586,2.423284 0.46036,3.220101 z"
           id="path1388"
           style="fill:#030f2b;fill-opacity:1;stroke-width:0.540621" />
      </g>
      <g
         id="g1400"
         transform="translate(-254.54333,6.6557777)">
        <g
           id="g1398"
           transform="translate(-31.26877,-28.799128)">
          <path
             class="st1"
             d="m 164.05668,79.793028 c -2.55173,0 -5.08725,-0.508184 -7.44435,-1.502928 -1.49753,-0.632527 -2.52471,-1.973268 -2.74095,-3.589726 -0.21625,-1.616458 0.41627,-3.178853 1.69214,-4.189815 2.68148,-2.11383 5.90359,-3.476196 9.3095,-3.935724 l 0.0378,0.270311 -0.0378,-0.270311 c 3.40591,-0.459528 6.86589,0 10.01771,1.329928 1.49753,0.632527 2.52471,1.978675 2.74095,3.589726 0.21625,1.616458 -0.41627,3.178854 -1.69214,4.18441 -2.68148,2.11383 -5.90359,3.476195 -9.3095,3.935724 -0.85959,0.118936 -1.71918,0.178405 -2.57336,0.178405 z m 3.38429,-12.850571 c -0.83256,0 -1.66511,0.05406 -2.49767,0.167593 -3.3086,0.44331 -6.4388,1.767832 -9.04459,3.822193 -1.1245,0.886619 -1.68674,2.27061 -1.49212,3.692444 0.18922,1.421835 1.09746,2.605795 2.41658,3.162635 3.05991,1.292085 6.42258,1.740801 9.73118,1.297492 3.30861,-0.44331 6.4388,-1.767832 9.0446,-3.822193 1.12449,-0.88662 1.68674,-2.265204 1.49211,-3.692445 -0.18921,-1.421834 -1.09205,-2.605795 -2.41657,-3.162635 -2.28683,-0.967712 -4.75207,-1.465084 -7.23352,-1.465084 z"
             id="path1392"
             style="fill:#030f2b;fill-opacity:1;stroke-width:0.540621" />
          <path
             class="st1"
             d="m 159.44754,73.543122 c 0.24686,3.476965 3.26718,6.093984 6.74415,5.847127 3.47696,-0.246857 6.09398,-3.267176 5.84713,-6.744141 -0.24686,-3.476965 -3.26718,-6.093984 -6.74415,-5.847127 -3.4773,0.252253 -6.09398,3.267176 -5.84713,6.744141 z m 3.51703,-0.796861 c 1.51253,-0.105159 2.82246,1.028232 2.93301,2.541101 0.10516,1.512529 -1.02823,2.822458 -2.5411,2.933012 -1.51253,0.105159 -2.82245,-1.028231 -2.93301,-2.5411 -0.10516,-1.512529 1.03397,-2.827514 2.5411,-2.933013 z"
             id="path1394"
             style="fill:#030f2b;stroke-width:0.540621" />
          <path
             class="st1"
             d="m 166.17295,66.529284 c 1.42981,0.09006 2.78184,0.641072 3.88614,1.599003 1.3305,1.150936 2.12896,2.750469 2.25154,4.50244 0.2596,3.618608 -2.47956,6.772073 -6.09817,7.031677 -1.75197,0.122579 -3.44999,-0.439393 -4.78048,-1.59033 -1.33049,-1.150936 -2.12895,-2.750469 -2.25119,-4.507836 -0.12258,-1.751971 0.43939,-3.449991 1.59032,-4.780483 1.1506,-1.325096 2.75048,-2.128954 4.50245,-2.251534 0.30452,-0.01874 0.60264,-0.02163 0.89939,-0.0029 z m -0.8205,12.596845 c 0.26977,0.01699 0.54597,0.01814 0.81812,-0.0026 3.32453,-0.234791 5.83088,-3.132074 5.59609,-6.456604 -0.11523,-1.610668 -0.84631,-3.075951 -2.06893,-4.133422 -1.21723,-1.057132 -2.77735,-1.5725 -4.38768,-1.462667 -1.61066,0.115228 -3.07594,0.84631 -4.13342,2.068933 -1.05713,1.217227 -1.57789,2.777003 -1.46266,4.387672 v 0 c 0.0459,0.647504 0.19059,1.274148 0.43008,1.85801 0.0473,-1.524596 1.24337,-2.798074 2.79974,-2.911305 1.65957,-0.117565 3.10298,1.132572 3.22055,2.792139 0.11757,1.659568 -1.13257,3.102984 -2.79214,3.220549 -0.11972,0.0087 -0.2391,0.01202 -0.3524,0.0049 0.72453,0.365234 1.51253,0.582791 2.33265,0.634447 z m -2.34723,-1.177058 c 0.10791,0.0068 0.22155,0.0085 0.33048,-8.65e-4 1.36044,-0.09849 2.38856,-1.285041 2.29007,-2.645476 -0.0985,-1.360435 -1.28539,-2.383154 -2.64008,-2.289722 -1.36044,0.09849 -2.38855,1.285041 -2.29007,2.645476 0.0894,1.24611 1.09021,2.213771 2.3096,2.290574 z"
             id="path1396"
             style="fill:#030f2b;fill-opacity:1;stroke-width:0.540621" />
        </g>
      </g>
      <g
         id="g1410"
         transform="translate(-252.87496,5.74632)">
        <g
           id="g1408"
           transform="matrix(-0.99688688,0.07884504,0.07884504,0.99688688,200.82238,-39.771742)">
          <path
             class="st1"
             d="m 164.05668,79.793028 c -2.55173,0 -5.08725,-0.508184 -7.44435,-1.502928 -1.49753,-0.632527 -2.52471,-1.973268 -2.74095,-3.589726 -0.21625,-1.616458 0.41627,-3.178853 1.69214,-4.189815 2.68148,-2.11383 5.90359,-3.476196 9.3095,-3.935724 l 0.0378,0.270311 -0.0378,-0.270311 c 3.40591,-0.459528 6.86589,0 10.01771,1.329928 1.49753,0.632527 2.52471,1.978675 2.74095,3.589726 0.21625,1.616458 -0.41627,3.178854 -1.69214,4.18441 -2.68148,2.11383 -5.90359,3.476195 -9.3095,3.935724 -0.85959,0.118936 -1.71918,0.178405 -2.57336,0.178405 z m 3.38429,-12.850571 c -0.83256,0 -1.66511,0.05406 -2.49767,0.167593 -3.3086,0.44331 -6.4388,1.767832 -9.04459,3.822193 -1.1245,0.886619 -1.68674,2.27061 -1.49212,3.692444 0.18922,1.421835 1.09746,2.605795 2.41658,3.162635 3.05991,1.292085 6.42258,1.740801 9.73118,1.297492 3.30861,-0.44331 6.4388,-1.767832 9.0446,-3.822193 1.12449,-0.88662 1.68674,-2.265204 1.49211,-3.692445 -0.18921,-1.421834 -1.09205,-2.605795 -2.41657,-3.162635 -2.28683,-0.967712 -4.75207,-1.465084 -7.23352,-1.465084 z"
             id="path1402"
             style="fill:#030f2b;fill-opacity:1;stroke-width:0.540621" />
          <path
             class="st1"
             d="m 159.44754,73.543122 c 0.24686,3.476965 3.26718,6.093984 6.74415,5.847127 3.47696,-0.246857 6.09398,-3.267176 5.84713,-6.744141 -0.24686,-3.476965 -3.26718,-6.093984 -6.74415,-5.847127 -3.4773,0.252253 -6.09398,3.267176 -5.84713,6.744141 z m 3.51703,-0.796861 c 1.51253,-0.105159 2.82246,1.028232 2.93301,2.541101 0.10516,1.512529 -1.02823,2.822458 -2.5411,2.933012 -1.51253,0.105159 -2.82245,-1.028231 -2.93301,-2.5411 -0.10516,-1.512529 1.03397,-2.827514 2.5411,-2.933013 z"
             id="path1404"
             style="fill:#030f2b;stroke-width:0.540621" />
          <path
             class="st1"
             d="m 166.17295,66.529284 c 1.42981,0.09006 2.78184,0.641072 3.88614,1.599003 1.3305,1.150936 2.12896,2.750469 2.25154,4.50244 0.2596,3.618608 -2.47956,6.772073 -6.09817,7.031677 -1.75197,0.122579 -3.44999,-0.439393 -4.78048,-1.59033 -1.33049,-1.150936 -2.12895,-2.750469 -2.25119,-4.507836 -0.12258,-1.751971 0.43939,-3.449991 1.59032,-4.780483 1.1506,-1.325096 2.75048,-2.128954 4.50245,-2.251534 0.30452,-0.01874 0.60264,-0.02163 0.89939,-0.0029 z m -0.8205,12.596845 c 0.26977,0.01699 0.54597,0.01814 0.81812,-0.0026 3.32453,-0.234791 5.83088,-3.132074 5.59609,-6.456604 -0.11523,-1.610668 -0.84631,-3.075951 -2.06893,-4.133422 -1.21723,-1.057132 -2.77735,-1.5725 -4.38768,-1.462667 -1.61066,0.115228 -3.07594,0.84631 -4.13342,2.068933 -1.05713,1.217227 -1.57789,2.777003 -1.46266,4.387672 v 0 c 0.0459,0.647504 0.19059,1.274148 0.43008,1.85801 0.0473,-1.524596 1.24337,-2.798074 2.79974,-2.911305 1.65957,-0.117565 3.10298,1.132572 3.22055,2.792139 0.11757,1.659568 -1.13257,3.102984 -2.79214,3.220549 -0.11972,0.0087 -0.2391,0.01202 -0.3524,0.0049 0.72453,0.365234 1.51253,0.582791 2.33265,0.634447 z m -2.34723,-1.177058 c 0.10791,0.0068 0.22155,0.0085 0.33048,-8.65e-4 1.36044,-0.09849 2.38856,-1.285041 2.29007,-2.645476 -0.0985,-1.360435 -1.28539,-2.383154 -2.64008,-2.289722 -1.36044,0.09849 -2.38855,1.285041 -2.29007,2.645476 0.0894,1.24611 1.09021,2.213771 2.3096,2.290574 z"
             id="path1406"
             style="fill:#030f2b;fill-opacity:1;stroke-width:0.540621" />
        </g>
      </g>
      <g
         id="g1418"
         transform="translate(-253.31331,4.3223591)">
        <path
           class="st1"
           d="m 86.171545,26.573001 c -2.55173,0 -5.08725,-0.508184 -7.44435,-1.502928 -1.49753,-0.632527 -2.52471,-1.973268 -2.74095,-3.589726 -0.21625,-1.616458 0.41627,-3.178853 1.69214,-4.189815 2.68148,-2.11383 5.90359,-3.476196 9.3095,-3.935724 l 0.0378,0.270311 -0.0378,-0.270311 c 3.40591,-0.459528 6.86589,0 10.01771,1.329928 1.49753,0.632527 2.52471,1.978675 2.74095,3.589726 0.21625,1.616458 -0.41627,3.178854 -1.69214,4.18441 -2.68148,2.11383 -5.90359,3.476195 -9.3095,3.935724 -0.85959,0.118936 -1.71918,0.178405 -2.57336,0.178405 z m 3.38429,-12.850571 c -0.83256,0 -1.66511,0.05406 -2.49767,0.167593 -3.3086,0.44331 -6.4388,1.767832 -9.04459,3.822193 -1.1245,0.886619 -1.68674,2.27061 -1.49212,3.692444 0.18922,1.421835 1.09746,2.605795 2.41658,3.162635 3.05991,1.292085 6.42258,1.740801 9.73118,1.297492 3.30861,-0.44331 6.4388,-1.767832 9.0446,-3.822193 1.12449,-0.88662 1.68674,-2.265204 1.49211,-3.692445 -0.18921,-1.421834 -1.09205,-2.605795 -2.41657,-3.162635 -2.28683,-0.967712 -4.75207,-1.465084 -7.23352,-1.465084 z"
           id="path1412"
           style="fill:#030f2b;fill-opacity:1;stroke-width:0.540621" />
        <path
           class="st1"
           d="m 84.143029,24.981327 c 2.818017,2.051585 6.765472,1.428108 8.817063,-1.389912 2.051584,-2.818012 1.428108,-6.765466 -1.389903,-8.817059 -2.818018,-2.051585 -6.765472,-1.428108 -8.817063,1.389912 -2.047677,2.821748 -1.428109,6.765466 1.389903,8.817059 z m 1.656796,-3.203048 c 0.894174,-1.224442 2.604964,-1.495895 3.83314,-0.605625 1.224442,0.894172 1.495895,2.604961 0.605628,3.83314 -0.894174,1.224442 -2.604957,1.495888 -3.833139,0.605626 -1.224442,-0.894172 -1.496063,-2.612609 -0.605629,-3.833141 z"
           id="path1414"
           style="fill:#030f2b;stroke-width:0.540621" />
        <path
           class="st1"
           d="m 83.112795,15.318839 c 0.990164,-1.035395 2.282717,-1.714297 3.72683,-1.941554 1.737463,-0.275879 3.475165,0.144164 4.893941,1.179298 2.934546,2.133109 3.581143,6.259761 1.448035,9.194311 -1.035134,1.418774 -2.559005,2.355204 -4.296462,2.631074 -1.737456,0.275871 -3.475158,-0.144171 -4.897841,-1.183042 -1.418777,-1.035134 -2.355208,-2.559004 -2.631084,-4.296456 -0.271962,-1.733723 0.144176,-3.475169 1.179309,-4.893945 0.181885,-0.244952 0.371767,-0.474796 0.577301,-0.689663 z m 9.104554,8.744187 c 0.186818,-0.195355 0.365666,-0.405833 0.525164,-0.627319 1.962594,-2.693669 1.361898,-6.477213 -1.33177,-8.439808 -1.305981,-0.949706 -2.897601,-1.334773 -4.494076,-1.081171 -1.592742,0.249699 -2.992118,1.110701 -3.945734,2.412947 -0.949703,1.305973 -1.334767,2.897593 -1.081168,4.494076 0.249698,1.592738 1.106963,2.996016 2.412945,3.945724 v 0 c 0.524744,0.382115 1.097191,0.675241 1.698004,0.868304 -1.135433,-1.018539 -1.338623,-2.753775 -0.422374,-4.016945 0.979431,-1.344882 2.865508,-1.643187 4.210392,-0.663762 1.344884,0.979426 1.643192,2.86551 0.663761,4.210392 -0.07049,0.09716 -0.144871,0.190593 -0.22332,0.27265 0.746154,-0.318736 1.420272,-0.781165 1.988216,-1.375054 z m -2.412564,1.036575 c 0.07473,-0.07814 0.149255,-0.16395 0.212282,-0.253286 0.801275,-1.103837 0.556343,-2.654625 -0.54749,-3.455897 -1.103839,-0.801264 -2.650715,-0.552593 -3.452153,0.543588 -0.801275,1.103836 -0.556337,2.654616 0.54749,3.455896 1.010547,0.734558 2.395418,0.592713 3.239861,-0.290309 z"
           id="path1416"
           style="fill:#030f2b;fill-opacity:1;stroke-width:0.540621" />
      </g>
      <g
         id="g1426"
         transform="translate(-264.85997,-0.23467019)">
        <path
           class="st1"
           d="m 41.818163,101.55323 c 2.543786,-0.20119 5.031345,-0.9077 7.302676,-2.085194 1.442996,-0.748631 2.361268,-2.166186 2.449385,-3.794662 0.08813,-1.628476 -0.665611,-3.136136 -2.017218,-4.043354 -2.839797,-1.895828 -6.159292,-2.999906 -9.590831,-3.189464 l -0.01637,0.27245 0.01637,-0.27245 c -3.431538,-0.189558 -6.844516,0.541341 -9.881665,2.115635 -1.442997,0.74863 -2.360842,2.171576 -2.449385,3.794661 -0.08813,1.628476 0.665611,3.136137 2.016792,4.037966 2.839797,1.895832 6.159292,2.999902 9.59083,3.189462 0.866292,0.0508 1.727895,0.0423 2.579416,-0.0251 z M 37.431205,89.009504 c 0.829968,-0.06564 1.664188,-0.07739 2.503108,-0.02986 3.333253,0.181063 6.55814,1.254661 9.317794,3.097173 1.190905,0.795198 1.860515,2.13055 1.778606,3.563303 -0.07653,1.432327 -0.88859,2.684212 -2.159699,3.343324 -2.94851,1.529326 -6.265332,2.241776 -9.598585,2.060706 -3.333263,-0.18106 -6.55814,-1.254659 -9.317804,-3.09717 -1.190895,-0.795199 -1.860089,-2.125161 -1.778596,-3.563304 0.07652,-1.432326 0.883196,-2.683786 2.159689,-3.343324 2.203411,-1.145005 4.621762,-1.8352 7.095487,-2.03085 z"
           id="path1420"
           style="fill:#030f2b;fill-opacity:1;stroke-width:0.540621" />
        <path
           class="st1"
           d="m 44.694612,91.272774 c 2.063431,2.809355 1.456578,6.759399 -1.352781,8.822836 -2.809322,2.06347 -6.759391,1.45658 -8.82283,-1.352769 -2.063431,-2.809355 -1.456579,-6.759399 1.352777,-8.822836 2.813103,-2.059539 6.759395,-1.45658 8.822834,1.352769 z m -3.196044,1.670267 c -1.220669,0.899318 -1.484914,2.611239 -0.589483,3.835655 0.899317,1.220669 2.611237,1.484915 3.835656,0.589485 1.220669,-0.899318 1.484908,-2.611232 0.589484,-3.835655 -0.899318,-1.220668 -2.618885,-1.485049 -3.835657,-0.589485 z"
           id="path1422"
           style="fill:#030f2b;stroke-width:0.540621" />
        <path
           class="st1"
           d="m 35.027871,90.283231 c -1.031217,0.994514 -1.70467,2.289913 -1.925845,3.734971 -0.268562,1.738608 0.158793,3.474526 1.199891,4.888932 2.145448,2.925536 6.27478,3.554756 9.200326,1.409316 1.414425,-1.041071 2.34441,-2.568902 2.612963,-4.307504 0.268553,-1.738602 -0.158802,-3.47452 -1.203653,-4.892818 -1.041102,-1.414403 -2.568897,-2.344412 -4.307495,-2.612971 -1.734854,-0.264661 -3.474531,0.158806 -4.888936,1.199903 -0.2442,0.182891 -0.473229,0.37376 -0.687228,0.580197 z m 8.782444,9.067661 c -0.194571,0.187633 -0.404308,0.367346 -0.62511,0.52779 -2.685361,1.973948 -6.471423,1.389158 -8.44534,-1.296226 -0.955195,-1.301972 -1.346961,-2.891956 -1.100082,-4.489484 0.242991,-1.593779 1.098094,-2.996768 2.396313,-3.955858 1.301965,-0.95519 2.891947,-1.346954 4.489484,-1.100079 1.593775,0.24299 3.000651,1.094339 3.955848,2.396311 v 0 c 0.384325,0.523128 0.679852,1.09434 0.875445,1.694334 -1.02331,-1.131136 -2.759386,-1.327018 -4.018686,-0.405459 -1.340747,0.985085 -1.63111,2.872401 -0.646031,4.21315 0.985076,1.340751 2.872403,1.631113 4.21315,0.646028 0.09686,-0.0709 0.189905,-0.145777 0.271707,-0.224465 -0.315593,0.747487 -0.775179,1.423547 -1.366671,1.993988 z m 1.026407,-2.416909 c -0.07782,0.07506 -0.163321,0.149942 -0.252393,0.213342 -1.100442,0.805931 -2.652259,0.567515 -3.45817,-0.532934 -0.805929,-1.100439 -0.563749,-2.648365 0.529048,-3.454411 1.100442,-0.805931 2.652251,-0.567509 3.45817,0.532934 0.738784,1.007463 0.602793,2.392902 -0.276666,3.241056 z"
           id="path1424"
           style="fill:#030f2b;fill-opacity:1;stroke-width:0.540621" />
      </g>
    </g>
  </g>
</svg>
